/*
WARNING: Do NOT edit the input and output ports in this file in a text
editor if you plan to continue editing the block that represents it in
the Block Editor! File corruption is VERY likely to occur.
*/
/*
Copyright (C) 1991-2015 Altera Corporation. All rights reserved.
Your use of Altera Corporation's design tools, logic functions 
and other software and tools, and its AMPP partner logic 
functions, and any output files from any of the foregoing 
(including device programming or simulation files), and any 
associated documentation or information are expressly subject 
to the terms and conditions of the Altera Program License 
Subscription Agreement, the Altera Quartus II License Agreement,
the Altera MegaCore Function License Agreement, or other 
applicable license agreement, including, without limitation, 
that your use is for the sole purpose of programming logic 
devices manufactured by Altera and sold by Altera or its 
authorized distributors.  Please refer to the applicable 
agreement for further details.
*/
(header "graphic" (version "1.4"))
(pin
	(input)
	(rect 232 648 408 664)
	(text "INPUT" (rect 133 0 161 10)(font "Arial" (font_size 6)))
	(text "Reset_L" (rect 9 0 50 12)(font "Arial" ))
	(pt 176 8)
	(drawing
		(line (pt 92 12)(pt 117 12))
		(line (pt 92 4)(pt 117 4))
		(line (pt 121 8)(pt 176 8))
		(line (pt 92 12)(pt 92 4))
		(line (pt 117 4)(pt 121 8))
		(line (pt 117 12)(pt 121 8))
	)
	(text "VCC" (rect 136 7 156 17)(font "Arial" (font_size 6)))
)
(pin
	(input)
	(rect 240 168 416 184)
	(text "INPUT" (rect 133 0 161 10)(font "Arial" (font_size 6)))
	(text "Clock_50Mhz" (rect 9 0 73 12)(font "Arial" ))
	(pt 176 8)
	(drawing
		(line (pt 92 12)(pt 117 12))
		(line (pt 92 4)(pt 117 4))
		(line (pt 121 8)(pt 176 8))
		(line (pt 92 12)(pt 92 4))
		(line (pt 117 4)(pt 121 8))
		(line (pt 117 12)(pt 121 8))
	)
	(text "VCC" (rect 136 7 156 17)(font "Arial" (font_size 6)))
)
(pin
	(input)
	(rect 232 600 408 616)
	(text "INPUT" (rect 133 0 161 10)(font "Arial" (font_size 6)))
	(text "WE_L" (rect 9 0 38 12)(font "Arial" ))
	(pt 176 8)
	(drawing
		(line (pt 92 12)(pt 117 12))
		(line (pt 92 4)(pt 117 4))
		(line (pt 121 8)(pt 176 8))
		(line (pt 92 12)(pt 92 4))
		(line (pt 117 4)(pt 121 8))
		(line (pt 117 12)(pt 121 8))
	)
	(text "VCC" (rect 136 7 156 17)(font "Arial" (font_size 6)))
)
(pin
	(input)
	(rect 240 184 416 200)
	(text "INPUT" (rect 133 0 161 10)(font "Arial" (font_size 6)))
	(text "DataIn[7..0]" (rect 9 0 68 12)(font "Arial" ))
	(pt 176 8)
	(drawing
		(line (pt 92 12)(pt 117 12))
		(line (pt 92 4)(pt 117 4))
		(line (pt 121 8)(pt 176 8))
		(line (pt 92 12)(pt 92 4))
		(line (pt 117 4)(pt 121 8))
		(line (pt 117 12)(pt 121 8))
	)
	(text "VCC" (rect 136 7 156 17)(font "Arial" (font_size 6)))
)
(pin
	(input)
	(rect 232 376 408 392)
	(text "INPUT" (rect 133 0 161 10)(font "Arial" (font_size 6)))
	(text "Address[15..0]" (rect 9 0 80 12)(font "Arial" ))
	(pt 176 8)
	(drawing
		(line (pt 92 12)(pt 117 12))
		(line (pt 92 4)(pt 117 4))
		(line (pt 121 8)(pt 176 8))
		(line (pt 92 12)(pt 92 4))
		(line (pt 117 4)(pt 121 8))
		(line (pt 117 12)(pt 121 8))
	)
	(text "VCC" (rect 136 7 156 17)(font "Arial" (font_size 6)))
)
(pin
	(input)
	(rect 232 392 408 408)
	(text "INPUT" (rect 133 0 161 10)(font "Arial" (font_size 6)))
	(text "IOSelect_H" (rect 9 0 65 12)(font "Arial" ))
	(pt 176 8)
	(drawing
		(line (pt 92 12)(pt 117 12))
		(line (pt 92 4)(pt 117 4))
		(line (pt 121 8)(pt 176 8))
		(line (pt 92 12)(pt 92 4))
		(line (pt 117 4)(pt 121 8))
		(line (pt 117 12)(pt 121 8))
	)
	(text "VCC" (rect 136 7 156 17)(font "Arial" (font_size 6)))
)
(pin
	(input)
	(rect 232 408 408 424)
	(text "INPUT" (rect 133 0 161 10)(font "Arial" (font_size 6)))
	(text "ByteSelect_L" (rect 9 0 75 12)(font "Arial" ))
	(pt 176 8)
	(drawing
		(line (pt 92 12)(pt 117 12))
		(line (pt 92 4)(pt 117 4))
		(line (pt 121 8)(pt 176 8))
		(line (pt 92 12)(pt 92 4))
		(line (pt 117 4)(pt 121 8))
		(line (pt 117 12)(pt 121 8))
	)
	(text "VCC" (rect 136 7 156 17)(font "Arial" (font_size 6)))
)
(pin
	(input)
	(rect 568 760 744 776)
	(text "INPUT" (rect 133 6 161 16)(font "Arial" (font_size 6)))
	(text "RS232_RxData" (rect 9 4 85 16)(font "Arial" ))
	(pt 176 8)
	(drawing
		(line (pt 92 4)(pt 117 4))
		(line (pt 92 12)(pt 117 12))
		(line (pt 121 8)(pt 176 8))
		(line (pt 92 4)(pt 92 12))
		(line (pt 117 12)(pt 121 8))
		(line (pt 117 4)(pt 121 8))
	)
	(flipx)
	(text "VCC" (rect 136 -1 156 9)(font "Arial" (font_size 6)))
)
(pin
	(input)
	(rect 568 1024 744 1040)
	(text "INPUT" (rect 133 6 161 16)(font "Arial" (font_size 6)))
	(text "GPS_RxData" (rect 9 4 75 16)(font "Arial" ))
	(pt 176 8)
	(drawing
		(line (pt 92 4)(pt 117 4))
		(line (pt 92 12)(pt 117 12))
		(line (pt 121 8)(pt 176 8))
		(line (pt 92 4)(pt 92 12))
		(line (pt 117 12)(pt 121 8))
		(line (pt 117 4)(pt 121 8))
	)
	(flipx)
	(text "VCC" (rect 136 -1 156 9)(font "Arial" (font_size 6)))
)
(pin
	(input)
	(rect 560 1304 736 1320)
	(text "INPUT" (rect 133 6 161 16)(font "Arial" (font_size 6)))
	(text "BlueTooth_RxData" (rect 9 4 101 16)(font "Arial" ))
	(pt 176 8)
	(drawing
		(line (pt 92 4)(pt 117 4))
		(line (pt 92 12)(pt 117 12))
		(line (pt 121 8)(pt 176 8))
		(line (pt 92 4)(pt 92 12))
		(line (pt 117 12)(pt 121 8))
		(line (pt 117 4)(pt 121 8))
	)
	(flipx)
	(text "VCC" (rect 136 -1 156 9)(font "Arial" (font_size 6)))
)
(pin
	(input)
	(rect 640 1576 816 1592)
	(text "INPUT" (rect 133 6 161 16)(font "Arial" (font_size 6)))
	(text "TouchScreen_RxData" (rect 9 4 116 16)(font "Arial" ))
	(pt 176 8)
	(drawing
		(line (pt 92 4)(pt 117 4))
		(line (pt 92 12)(pt 117 12))
		(line (pt 121 8)(pt 176 8))
		(line (pt 92 4)(pt 92 12))
		(line (pt 117 12)(pt 121 8))
		(line (pt 117 4)(pt 121 8))
	)
	(flipx)
	(text "VCC" (rect 136 -1 156 9)(font "Arial" (font_size 6)))
)
(pin
	(input)
	(rect 648 1832 816 1848)
	(text "INPUT" (rect 125 0 153 10)(font "Arial" (font_size 6)))
	(text "WiFi_RxData" (rect 5 0 72 12)(font "Arial" ))
	(pt 168 8)
	(drawing
		(line (pt 84 12)(pt 109 12))
		(line (pt 84 4)(pt 109 4))
		(line (pt 113 8)(pt 168 8))
		(line (pt 84 12)(pt 84 4))
		(line (pt 109 4)(pt 113 8))
		(line (pt 109 12)(pt 113 8))
	)
	(text "VCC" (rect 128 7 148 17)(font "Arial" (font_size 6)))
)
(pin
	(output)
	(rect 1256 664 1432 680)
	(text "OUTPUT" (rect 1 0 39 10)(font "Arial" (font_size 6)))
	(text "RS232_TxData" (rect 90 0 164 12)(font "Arial" ))
	(pt 0 8)
	(drawing
		(line (pt 0 8)(pt 52 8))
		(line (pt 52 4)(pt 78 4))
		(line (pt 52 12)(pt 78 12))
		(line (pt 52 12)(pt 52 4))
		(line (pt 78 4)(pt 82 8))
		(line (pt 82 8)(pt 78 12))
		(line (pt 78 12)(pt 82 8))
	)
)
(pin
	(output)
	(rect 1600 696 1776 712)
	(text "OUTPUT" (rect 1 0 39 10)(font "Arial" (font_size 6)))
	(text "ACIA_IRQ" (rect 90 0 141 12)(font "Arial" ))
	(pt 0 8)
	(drawing
		(line (pt 0 8)(pt 52 8))
		(line (pt 52 4)(pt 78 4))
		(line (pt 52 12)(pt 78 12))
		(line (pt 52 12)(pt 52 4))
		(line (pt 78 4)(pt 82 8))
		(line (pt 82 8)(pt 78 12))
		(line (pt 78 12)(pt 82 8))
	)
)
(pin
	(output)
	(rect 1600 648 1776 664)
	(text "OUTPUT" (rect 1 0 39 10)(font "Arial" (font_size 6)))
	(text "DataOut[7..0]" (rect 90 0 157 12)(font "Arial" ))
	(pt 0 8)
	(drawing
		(line (pt 0 8)(pt 52 8))
		(line (pt 52 4)(pt 78 4))
		(line (pt 52 12)(pt 78 12))
		(line (pt 52 12)(pt 52 4))
		(line (pt 78 4)(pt 82 8))
		(line (pt 82 8)(pt 78 12))
		(line (pt 78 12)(pt 82 8))
	)
)
(pin
	(output)
	(rect 1232 936 1408 952)
	(text "OUTPUT" (rect 1 0 39 10)(font "Arial" (font_size 6)))
	(text "GPS_TxData" (rect 90 0 153 12)(font "Arial" ))
	(pt 0 8)
	(drawing
		(line (pt 0 8)(pt 52 8))
		(line (pt 52 4)(pt 78 4))
		(line (pt 52 12)(pt 78 12))
		(line (pt 52 12)(pt 52 4))
		(line (pt 78 4)(pt 82 8))
		(line (pt 82 8)(pt 78 12))
		(line (pt 78 12)(pt 82 8))
	)
)
(pin
	(output)
	(rect 1232 1208 1408 1224)
	(text "OUTPUT" (rect 1 0 39 10)(font "Arial" (font_size 6)))
	(text "BlueTooth_TxData" (rect 90 0 179 12)(font "Arial" ))
	(pt 0 8)
	(drawing
		(line (pt 0 8)(pt 52 8))
		(line (pt 52 4)(pt 78 4))
		(line (pt 52 12)(pt 78 12))
		(line (pt 52 12)(pt 52 4))
		(line (pt 78 4)(pt 82 8))
		(line (pt 82 8)(pt 78 12))
		(line (pt 78 12)(pt 82 8))
	)
)
(pin
	(output)
	(rect 1232 1480 1408 1496)
	(text "OUTPUT" (rect 1 0 39 10)(font "Arial" (font_size 6)))
	(text "TouchScreen_TxData" (rect 90 0 195 12)(font "Arial" ))
	(pt 0 8)
	(drawing
		(line (pt 0 8)(pt 52 8))
		(line (pt 52 4)(pt 78 4))
		(line (pt 52 12)(pt 78 12))
		(line (pt 52 12)(pt 52 4))
		(line (pt 78 4)(pt 82 8))
		(line (pt 82 8)(pt 78 12))
		(line (pt 78 12)(pt 82 8))
	)
)
(pin
	(output)
	(rect 1232 1736 1408 1752)
	(text "OUTPUT" (rect 1 0 39 10)(font "Arial" (font_size 6)))
	(text "WiFi_TxData" (rect 90 0 153 12)(font "Arial" ))
	(pt 0 8)
	(drawing
		(line (pt 0 8)(pt 52 8))
		(line (pt 52 4)(pt 78 4))
		(line (pt 52 12)(pt 78 12))
		(line (pt 52 12)(pt 52 4))
		(line (pt 78 4)(pt 82 8))
		(line (pt 82 8)(pt 78 12))
		(line (pt 78 12)(pt 82 8))
	)
)
(symbol
	(rect 1008 608 1208 848)
	(text "ACIA_6850" (rect 5 0 60 12)(font "Arial" ))
	(text "RS232" (rect 8 224 41 236)(font "Arial" ))
	(port
		(pt 0 32)
		(input)
		(text "Clk" (rect 0 0 16 12)(font "Arial" ))
		(text "Clk" (rect 21 27 37 39)(font "Arial" ))
		(line (pt 0 32)(pt 16 32))
	)
	(port
		(pt 0 48)
		(input)
		(text "Reset_H" (rect 0 0 43 12)(font "Arial" ))
		(text "Reset_H" (rect 21 43 64 55)(font "Arial" ))
		(line (pt 0 48)(pt 16 48))
	)
	(port
		(pt 0 64)
		(input)
		(text "CS_H" (rect 0 0 29 12)(font "Arial" ))
		(text "CS_H" (rect 21 59 50 71)(font "Arial" ))
		(line (pt 0 64)(pt 16 64))
	)
	(port
		(pt 0 80)
		(input)
		(text "Write_L" (rect 0 0 37 12)(font "Arial" ))
		(text "Write_L" (rect 21 75 58 87)(font "Arial" ))
		(line (pt 0 80)(pt 16 80))
	)
	(port
		(pt 0 96)
		(input)
		(text "RS" (rect 0 0 15 12)(font "Arial" ))
		(text "RS" (rect 21 91 36 103)(font "Arial" ))
		(line (pt 0 96)(pt 16 96))
	)
	(port
		(pt 0 112)
		(input)
		(text "DataIn[7..0]" (rect 0 0 59 12)(font "Arial" ))
		(text "DataIn[7..0]" (rect 21 107 80 119)(font "Arial" ))
		(line (pt 0 112)(pt 16 112)(line_width 3))
	)
	(port
		(pt 0 128)
		(input)
		(text "RxClock" (rect 0 0 42 12)(font "Arial" ))
		(text "RxClock" (rect 21 123 63 135)(font "Arial" ))
		(line (pt 0 128)(pt 16 128))
	)
	(port
		(pt 0 144)
		(input)
		(text "TxClock" (rect 0 0 40 12)(font "Arial" ))
		(text "TxClock" (rect 21 139 61 151)(font "Arial" ))
		(line (pt 0 144)(pt 16 144))
	)
	(port
		(pt 0 160)
		(input)
		(text "RxData" (rect 0 0 37 12)(font "Arial" ))
		(text "RxData" (rect 21 155 58 167)(font "Arial" ))
		(line (pt 0 160)(pt 16 160))
	)
	(port
		(pt 0 176)
		(input)
		(text "DCD_L" (rect 0 0 36 12)(font "Arial" ))
		(text "DCD_L" (rect 21 171 57 183)(font "Arial" ))
		(line (pt 0 176)(pt 16 176))
	)
	(port
		(pt 0 192)
		(input)
		(text "CTS_L" (rect 0 0 33 12)(font "Arial" ))
		(text "CTS_L" (rect 21 187 54 199)(font "Arial" ))
		(line (pt 0 192)(pt 16 192))
	)
	(port
		(pt 200 32)
		(output)
		(text "IRQ_L" (rect 0 0 31 12)(font "Arial" ))
		(text "IRQ_L" (rect 153 27 184 39)(font "Arial" ))
		(line (pt 200 32)(pt 184 32))
	)
	(port
		(pt 200 48)
		(output)
		(text "DataOut[7..0]" (rect 0 0 67 12)(font "Arial" ))
		(text "DataOut[7..0]" (rect 123 43 190 55)(font "Arial" ))
		(line (pt 200 48)(pt 184 48)(line_width 3))
	)
	(port
		(pt 200 64)
		(output)
		(text "TxData" (rect 0 0 35 12)(font "Arial" ))
		(text "TxData" (rect 150 59 185 71)(font "Arial" ))
		(line (pt 200 64)(pt 184 64))
	)
	(port
		(pt 200 80)
		(output)
		(text "RTS_L" (rect 0 0 33 12)(font "Arial" ))
		(text "RTS_L" (rect 152 75 185 87)(font "Arial" ))
		(line (pt 200 80)(pt 184 80))
	)
	(drawing
		(rectangle (rect 16 16 184 224))
	)
)
(symbol
	(rect 728 640 776 672)
	(text "NOT" (rect 1 0 21 10)(font "Arial" (font_size 6)))
	(text "inst3" (rect 3 21 26 33)(font "Arial" ))
	(port
		(pt 0 16)
		(input)
		(text "IN" (rect 2 7 13 19)(font "Courier New" (bold))(invisible))
		(text "IN" (rect 2 7 13 19)(font "Courier New" (bold))(invisible))
		(line (pt 0 16)(pt 13 16))
	)
	(port
		(pt 48 16)
		(output)
		(text "OUT" (rect 32 7 49 19)(font "Courier New" (bold))(invisible))
		(text "OUT" (rect 32 7 49 19)(font "Courier New" (bold))(invisible))
		(line (pt 39 16)(pt 48 16))
	)
	(drawing
		(line (pt 13 25)(pt 13 7))
		(line (pt 13 7)(pt 31 16))
		(line (pt 13 25)(pt 31 16))
		(circle (rect 31 12 39 20))
	)
)
(symbol
	(rect 976 800 1008 832)
	(text "GND" (rect 8 16 29 26)(font "Arial" (font_size 6)))
	(text "inst4" (rect 3 21 26 33)(font "Arial" )(invisible))
	(port
		(pt 16 0)
		(output)
		(text "1" (rect 18 0 23 12)(font "Courier New" (bold))(invisible))
		(text "1" (rect 18 0 23 12)(font "Courier New" (bold))(invisible))
		(line (pt 16 8)(pt 16 0))
	)
	(drawing
		(line (pt 8 8)(pt 16 16))
		(line (pt 16 16)(pt 24 8))
		(line (pt 8 8)(pt 24 8))
	)
)
(symbol
	(rect 968 1072 1000 1104)
	(text "GND" (rect 8 16 29 26)(font "Arial" (font_size 6)))
	(text "inst6" (rect 3 21 26 33)(font "Arial" )(invisible))
	(port
		(pt 16 0)
		(output)
		(text "1" (rect 18 0 23 12)(font "Courier New" (bold))(invisible))
		(text "1" (rect 18 0 23 12)(font "Courier New" (bold))(invisible))
		(line (pt 16 8)(pt 16 0))
	)
	(drawing
		(line (pt 8 8)(pt 16 16))
		(line (pt 16 16)(pt 24 8))
		(line (pt 8 8)(pt 24 8))
	)
)
(symbol
	(rect 968 1344 1000 1376)
	(text "GND" (rect 8 16 29 26)(font "Arial" (font_size 6)))
	(text "inst12" (rect 3 21 32 33)(font "Arial" )(invisible))
	(port
		(pt 16 0)
		(output)
		(text "1" (rect 18 0 23 12)(font "Courier New" (bold))(invisible))
		(text "1" (rect 18 0 23 12)(font "Courier New" (bold))(invisible))
		(line (pt 16 8)(pt 16 0))
	)
	(drawing
		(line (pt 8 8)(pt 16 16))
		(line (pt 16 16)(pt 24 8))
		(line (pt 8 8)(pt 24 8))
	)
)
(symbol
	(rect 960 1616 992 1648)
	(text "GND" (rect 8 16 29 26)(font "Arial" (font_size 6)))
	(text "inst14" (rect 3 21 32 33)(font "Arial" )(invisible))
	(port
		(pt 16 0)
		(output)
		(text "1" (rect 18 0 23 12)(font "Courier New" (bold))(invisible))
		(text "1" (rect 18 0 23 12)(font "Courier New" (bold))(invisible))
		(line (pt 16 8)(pt 16 0))
	)
	(drawing
		(line (pt 8 8)(pt 16 16))
		(line (pt 16 16)(pt 24 8))
		(line (pt 8 8)(pt 24 8))
	)
)
(symbol
	(rect 520 352 792 560)
	(text "M68xxIODecoder" (rect 5 0 89 12)(font "Arial" ))
	(text "inst" (rect 8 192 25 204)(font "Arial" ))
	(port
		(pt 0 32)
		(input)
		(text "Address[15..0]" (rect 0 0 71 12)(font "Arial" ))
		(text "Address[15..0]" (rect 21 27 92 39)(font "Arial" ))
		(line (pt 0 32)(pt 16 32)(line_width 3))
	)
	(port
		(pt 0 48)
		(input)
		(text "IOSelect_H" (rect 0 0 56 12)(font "Arial" ))
		(text "IOSelect_H" (rect 21 43 77 55)(font "Arial" ))
		(line (pt 0 48)(pt 16 48))
	)
	(port
		(pt 0 64)
		(input)
		(text "ByteSelect_L" (rect 0 0 66 12)(font "Arial" ))
		(text "ByteSelect_L" (rect 21 59 87 71)(font "Arial" ))
		(line (pt 0 64)(pt 16 64))
	)
	(port
		(pt 0 80)
		(input)
		(text "WE_L" (rect 0 0 29 12)(font "Arial" ))
		(text "WE_L" (rect 21 75 50 87)(font "Arial" ))
		(line (pt 0 80)(pt 16 80))
	)
	(port
		(pt 272 32)
		(output)
		(text "RS232_Port_Enable" (rect 0 0 97 12)(font "Arial" ))
		(text "RS232_Port_Enable" (rect 169 27 266 39)(font "Arial" ))
		(line (pt 272 32)(pt 256 32))
	)
	(port
		(pt 272 48)
		(output)
		(text "RS232_Baud_Enable" (rect 0 0 102 12)(font "Arial" ))
		(text "RS232_Baud_Enable" (rect 165 43 267 55)(font "Arial" ))
		(line (pt 272 48)(pt 256 48))
	)
	(port
		(pt 272 64)
		(output)
		(text "GPS_Port_Enable" (rect 0 0 87 12)(font "Arial" ))
		(text "GPS_Port_Enable" (rect 178 59 265 71)(font "Arial" ))
		(line (pt 272 64)(pt 256 64))
	)
	(port
		(pt 272 80)
		(output)
		(text "GPS_Baud_Enable" (rect 0 0 92 12)(font "Arial" ))
		(text "GPS_Baud_Enable" (rect 174 75 266 87)(font "Arial" ))
		(line (pt 272 80)(pt 256 80))
	)
	(port
		(pt 272 96)
		(output)
		(text "Bluetooth_Port_Enable" (rect 0 0 110 12)(font "Arial" ))
		(text "Bluetooth_Port_Enable" (rect 158 91 268 103)(font "Arial" ))
		(line (pt 272 96)(pt 256 96))
	)
	(port
		(pt 272 112)
		(output)
		(text "Bluetooth_Baud_Enable" (rect 0 0 115 12)(font "Arial" ))
		(text "Bluetooth_Baud_Enable" (rect 154 107 269 119)(font "Arial" ))
		(line (pt 272 112)(pt 256 112))
	)
	(port
		(pt 272 128)
		(output)
		(text "TouchScreen_Port_Enable" (rect 0 0 128 12)(font "Arial" ))
		(text "TouchScreen_Port_Enable" (rect 143 123 271 135)(font "Arial" ))
		(line (pt 272 128)(pt 256 128))
	)
	(port
		(pt 272 144)
		(output)
		(text "TouchScreen_Baud_Enable" (rect 0 0 133 12)(font "Arial" ))
		(text "TouchScreen_Baud_Enable" (rect 139 139 272 151)(font "Arial" ))
		(line (pt 272 144)(pt 256 144))
	)
	(port
		(pt 272 160)
		(output)
		(text "WiFi_Port_Enable" (rect 0 0 87 12)(font "Arial" ))
		(text "WiFi_Port_Enable" (rect 178 155 265 167)(font "Arial" ))
		(line (pt 272 160)(pt 256 160))
	)
	(port
		(pt 272 176)
		(output)
		(text "WiFi_Baud_Enable" (rect 0 0 92 12)(font "Arial" ))
		(text "WiFi_Baud_Enable" (rect 174 171 266 183)(font "Arial" ))
		(line (pt 272 176)(pt 256 176))
	)
	(drawing
		(rectangle (rect 16 16 256 192))
	)
)
(symbol
	(rect 1008 880 1208 1120)
	(text "ACIA_6850" (rect 5 0 60 12)(font "Arial" ))
	(text "GPS" (rect 8 224 30 236)(font "Arial" ))
	(port
		(pt 0 32)
		(input)
		(text "Clk" (rect 0 0 16 12)(font "Arial" ))
		(text "Clk" (rect 21 27 37 39)(font "Arial" ))
		(line (pt 0 32)(pt 16 32))
	)
	(port
		(pt 0 48)
		(input)
		(text "Reset_H" (rect 0 0 43 12)(font "Arial" ))
		(text "Reset_H" (rect 21 43 64 55)(font "Arial" ))
		(line (pt 0 48)(pt 16 48))
	)
	(port
		(pt 0 64)
		(input)
		(text "CS_H" (rect 0 0 29 12)(font "Arial" ))
		(text "CS_H" (rect 21 59 50 71)(font "Arial" ))
		(line (pt 0 64)(pt 16 64))
	)
	(port
		(pt 0 80)
		(input)
		(text "Write_L" (rect 0 0 37 12)(font "Arial" ))
		(text "Write_L" (rect 21 75 58 87)(font "Arial" ))
		(line (pt 0 80)(pt 16 80))
	)
	(port
		(pt 0 96)
		(input)
		(text "RS" (rect 0 0 15 12)(font "Arial" ))
		(text "RS" (rect 21 91 36 103)(font "Arial" ))
		(line (pt 0 96)(pt 16 96))
	)
	(port
		(pt 0 112)
		(input)
		(text "DataIn[7..0]" (rect 0 0 59 12)(font "Arial" ))
		(text "DataIn[7..0]" (rect 21 107 80 119)(font "Arial" ))
		(line (pt 0 112)(pt 16 112)(line_width 3))
	)
	(port
		(pt 0 128)
		(input)
		(text "RxClock" (rect 0 0 42 12)(font "Arial" ))
		(text "RxClock" (rect 21 123 63 135)(font "Arial" ))
		(line (pt 0 128)(pt 16 128))
	)
	(port
		(pt 0 144)
		(input)
		(text "TxClock" (rect 0 0 40 12)(font "Arial" ))
		(text "TxClock" (rect 21 139 61 151)(font "Arial" ))
		(line (pt 0 144)(pt 16 144))
	)
	(port
		(pt 0 160)
		(input)
		(text "RxData" (rect 0 0 37 12)(font "Arial" ))
		(text "RxData" (rect 21 155 58 167)(font "Arial" ))
		(line (pt 0 160)(pt 16 160))
	)
	(port
		(pt 0 176)
		(input)
		(text "DCD_L" (rect 0 0 36 12)(font "Arial" ))
		(text "DCD_L" (rect 21 171 57 183)(font "Arial" ))
		(line (pt 0 176)(pt 16 176))
	)
	(port
		(pt 0 192)
		(input)
		(text "CTS_L" (rect 0 0 33 12)(font "Arial" ))
		(text "CTS_L" (rect 21 187 54 199)(font "Arial" ))
		(line (pt 0 192)(pt 16 192))
	)
	(port
		(pt 200 32)
		(output)
		(text "IRQ_L" (rect 0 0 31 12)(font "Arial" ))
		(text "IRQ_L" (rect 153 27 184 39)(font "Arial" ))
		(line (pt 200 32)(pt 184 32))
	)
	(port
		(pt 200 48)
		(output)
		(text "DataOut[7..0]" (rect 0 0 67 12)(font "Arial" ))
		(text "DataOut[7..0]" (rect 123 43 190 55)(font "Arial" ))
		(line (pt 200 48)(pt 184 48)(line_width 3))
	)
	(port
		(pt 200 64)
		(output)
		(text "TxData" (rect 0 0 35 12)(font "Arial" ))
		(text "TxData" (rect 150 59 185 71)(font "Arial" ))
		(line (pt 200 64)(pt 184 64))
	)
	(port
		(pt 200 80)
		(output)
		(text "RTS_L" (rect 0 0 33 12)(font "Arial" ))
		(text "RTS_L" (rect 152 75 185 87)(font "Arial" ))
		(line (pt 200 80)(pt 184 80))
	)
	(drawing
		(rectangle (rect 16 16 184 224))
	)
)
(symbol
	(rect 1008 1152 1208 1392)
	(text "ACIA_6850" (rect 5 0 60 12)(font "Arial" ))
	(text "Bluetooth" (rect 8 224 54 236)(font "Arial" ))
	(port
		(pt 0 32)
		(input)
		(text "Clk" (rect 0 0 16 12)(font "Arial" ))
		(text "Clk" (rect 21 27 37 39)(font "Arial" ))
		(line (pt 0 32)(pt 16 32))
	)
	(port
		(pt 0 48)
		(input)
		(text "Reset_H" (rect 0 0 43 12)(font "Arial" ))
		(text "Reset_H" (rect 21 43 64 55)(font "Arial" ))
		(line (pt 0 48)(pt 16 48))
	)
	(port
		(pt 0 64)
		(input)
		(text "CS_H" (rect 0 0 29 12)(font "Arial" ))
		(text "CS_H" (rect 21 59 50 71)(font "Arial" ))
		(line (pt 0 64)(pt 16 64))
	)
	(port
		(pt 0 80)
		(input)
		(text "Write_L" (rect 0 0 37 12)(font "Arial" ))
		(text "Write_L" (rect 21 75 58 87)(font "Arial" ))
		(line (pt 0 80)(pt 16 80))
	)
	(port
		(pt 0 96)
		(input)
		(text "RS" (rect 0 0 15 12)(font "Arial" ))
		(text "RS" (rect 21 91 36 103)(font "Arial" ))
		(line (pt 0 96)(pt 16 96))
	)
	(port
		(pt 0 112)
		(input)
		(text "DataIn[7..0]" (rect 0 0 59 12)(font "Arial" ))
		(text "DataIn[7..0]" (rect 21 107 80 119)(font "Arial" ))
		(line (pt 0 112)(pt 16 112)(line_width 3))
	)
	(port
		(pt 0 128)
		(input)
		(text "RxClock" (rect 0 0 42 12)(font "Arial" ))
		(text "RxClock" (rect 21 123 63 135)(font "Arial" ))
		(line (pt 0 128)(pt 16 128))
	)
	(port
		(pt 0 144)
		(input)
		(text "TxClock" (rect 0 0 40 12)(font "Arial" ))
		(text "TxClock" (rect 21 139 61 151)(font "Arial" ))
		(line (pt 0 144)(pt 16 144))
	)
	(port
		(pt 0 160)
		(input)
		(text "RxData" (rect 0 0 37 12)(font "Arial" ))
		(text "RxData" (rect 21 155 58 167)(font "Arial" ))
		(line (pt 0 160)(pt 16 160))
	)
	(port
		(pt 0 176)
		(input)
		(text "DCD_L" (rect 0 0 36 12)(font "Arial" ))
		(text "DCD_L" (rect 21 171 57 183)(font "Arial" ))
		(line (pt 0 176)(pt 16 176))
	)
	(port
		(pt 0 192)
		(input)
		(text "CTS_L" (rect 0 0 33 12)(font "Arial" ))
		(text "CTS_L" (rect 21 187 54 199)(font "Arial" ))
		(line (pt 0 192)(pt 16 192))
	)
	(port
		(pt 200 32)
		(output)
		(text "IRQ_L" (rect 0 0 31 12)(font "Arial" ))
		(text "IRQ_L" (rect 153 27 184 39)(font "Arial" ))
		(line (pt 200 32)(pt 184 32))
	)
	(port
		(pt 200 48)
		(output)
		(text "DataOut[7..0]" (rect 0 0 67 12)(font "Arial" ))
		(text "DataOut[7..0]" (rect 123 43 190 55)(font "Arial" ))
		(line (pt 200 48)(pt 184 48)(line_width 3))
	)
	(port
		(pt 200 64)
		(output)
		(text "TxData" (rect 0 0 35 12)(font "Arial" ))
		(text "TxData" (rect 150 59 185 71)(font "Arial" ))
		(line (pt 200 64)(pt 184 64))
	)
	(port
		(pt 200 80)
		(output)
		(text "RTS_L" (rect 0 0 33 12)(font "Arial" ))
		(text "RTS_L" (rect 152 75 185 87)(font "Arial" ))
		(line (pt 200 80)(pt 184 80))
	)
	(drawing
		(rectangle (rect 16 16 184 224))
	)
)
(symbol
	(rect 1008 1424 1208 1664)
	(text "ACIA_6850" (rect 5 0 60 12)(font "Arial" ))
	(text "Touchscreen" (rect 8 224 70 236)(font "Arial" ))
	(port
		(pt 0 32)
		(input)
		(text "Clk" (rect 0 0 16 12)(font "Arial" ))
		(text "Clk" (rect 21 27 37 39)(font "Arial" ))
		(line (pt 0 32)(pt 16 32))
	)
	(port
		(pt 0 48)
		(input)
		(text "Reset_H" (rect 0 0 43 12)(font "Arial" ))
		(text "Reset_H" (rect 21 43 64 55)(font "Arial" ))
		(line (pt 0 48)(pt 16 48))
	)
	(port
		(pt 0 64)
		(input)
		(text "CS_H" (rect 0 0 29 12)(font "Arial" ))
		(text "CS_H" (rect 21 59 50 71)(font "Arial" ))
		(line (pt 0 64)(pt 16 64))
	)
	(port
		(pt 0 80)
		(input)
		(text "Write_L" (rect 0 0 37 12)(font "Arial" ))
		(text "Write_L" (rect 21 75 58 87)(font "Arial" ))
		(line (pt 0 80)(pt 16 80))
	)
	(port
		(pt 0 96)
		(input)
		(text "RS" (rect 0 0 15 12)(font "Arial" ))
		(text "RS" (rect 21 91 36 103)(font "Arial" ))
		(line (pt 0 96)(pt 16 96))
	)
	(port
		(pt 0 112)
		(input)
		(text "DataIn[7..0]" (rect 0 0 59 12)(font "Arial" ))
		(text "DataIn[7..0]" (rect 21 107 80 119)(font "Arial" ))
		(line (pt 0 112)(pt 16 112)(line_width 3))
	)
	(port
		(pt 0 128)
		(input)
		(text "RxClock" (rect 0 0 42 12)(font "Arial" ))
		(text "RxClock" (rect 21 123 63 135)(font "Arial" ))
		(line (pt 0 128)(pt 16 128))
	)
	(port
		(pt 0 144)
		(input)
		(text "TxClock" (rect 0 0 40 12)(font "Arial" ))
		(text "TxClock" (rect 21 139 61 151)(font "Arial" ))
		(line (pt 0 144)(pt 16 144))
	)
	(port
		(pt 0 160)
		(input)
		(text "RxData" (rect 0 0 37 12)(font "Arial" ))
		(text "RxData" (rect 21 155 58 167)(font "Arial" ))
		(line (pt 0 160)(pt 16 160))
	)
	(port
		(pt 0 176)
		(input)
		(text "DCD_L" (rect 0 0 36 12)(font "Arial" ))
		(text "DCD_L" (rect 21 171 57 183)(font "Arial" ))
		(line (pt 0 176)(pt 16 176))
	)
	(port
		(pt 0 192)
		(input)
		(text "CTS_L" (rect 0 0 33 12)(font "Arial" ))
		(text "CTS_L" (rect 21 187 54 199)(font "Arial" ))
		(line (pt 0 192)(pt 16 192))
	)
	(port
		(pt 200 32)
		(output)
		(text "IRQ_L" (rect 0 0 31 12)(font "Arial" ))
		(text "IRQ_L" (rect 153 27 184 39)(font "Arial" ))
		(line (pt 200 32)(pt 184 32))
	)
	(port
		(pt 200 48)
		(output)
		(text "DataOut[7..0]" (rect 0 0 67 12)(font "Arial" ))
		(text "DataOut[7..0]" (rect 123 43 190 55)(font "Arial" ))
		(line (pt 200 48)(pt 184 48)(line_width 3))
	)
	(port
		(pt 200 64)
		(output)
		(text "TxData" (rect 0 0 35 12)(font "Arial" ))
		(text "TxData" (rect 150 59 185 71)(font "Arial" ))
		(line (pt 200 64)(pt 184 64))
	)
	(port
		(pt 200 80)
		(output)
		(text "RTS_L" (rect 0 0 33 12)(font "Arial" ))
		(text "RTS_L" (rect 152 75 185 87)(font "Arial" ))
		(line (pt 200 80)(pt 184 80))
	)
	(drawing
		(rectangle (rect 16 16 184 224))
	)
)
(symbol
	(rect 992 16 1176 144)
	(text "ACIA_BaudRate_Generator" (rect 5 0 161 14)(font "Arial" (font_size 8)))
	(text "GPS_Clock" (rect 8 112 64 124)(font "Arial" ))
	(port
		(pt 0 32)
		(input)
		(text "Clk_50Mhz" (rect 0 0 61 14)(font "Arial" (font_size 8)))
		(text "Clk_50Mhz" (rect 21 27 82 41)(font "Arial" (font_size 8)))
		(line (pt 0 32)(pt 16 32))
	)
	(port
		(pt 0 48)
		(input)
		(text "DataIn[2..0]" (rect 0 0 63 14)(font "Arial" (font_size 8)))
		(text "DataIn[2..0]" (rect 21 43 84 57)(font "Arial" (font_size 8)))
		(line (pt 0 48)(pt 16 48)(line_width 3))
	)
	(port
		(pt 0 64)
		(input)
		(text "Enable_H" (rect 0 0 53 14)(font "Arial" (font_size 8)))
		(text "Enable_H" (rect 21 59 74 73)(font "Arial" (font_size 8)))
		(line (pt 0 64)(pt 16 64))
	)
	(port
		(pt 0 80)
		(input)
		(text "Clk" (rect 0 0 16 14)(font "Arial" (font_size 8)))
		(text "Clk" (rect 21 75 37 89)(font "Arial" (font_size 8)))
		(line (pt 0 80)(pt 16 80))
	)
	(port
		(pt 0 96)
		(input)
		(text "Reset_L" (rect 0 0 47 14)(font "Arial" (font_size 8)))
		(text "Reset_L" (rect 21 91 68 105)(font "Arial" (font_size 8)))
		(line (pt 0 96)(pt 16 96))
	)
	(port
		(pt 184 32)
		(output)
		(text "ACIA_Clock" (rect 0 0 67 14)(font "Arial" (font_size 8)))
		(text "ACIA_Clock" (rect 96 27 163 41)(font "Arial" (font_size 8)))
		(line (pt 184 32)(pt 168 32))
	)
	(drawing
		(rectangle (rect 16 16 168 112))
	)
)
(symbol
	(rect 992 144 1176 272)
	(text "ACIA_BaudRate_Generator" (rect 5 0 161 14)(font "Arial" (font_size 8)))
	(text "RS232_Clock" (rect 8 112 75 124)(font "Arial" ))
	(port
		(pt 0 32)
		(input)
		(text "Clk_50Mhz" (rect 0 0 61 14)(font "Arial" (font_size 8)))
		(text "Clk_50Mhz" (rect 21 27 82 41)(font "Arial" (font_size 8)))
		(line (pt 0 32)(pt 16 32))
	)
	(port
		(pt 0 48)
		(input)
		(text "DataIn[2..0]" (rect 0 0 63 14)(font "Arial" (font_size 8)))
		(text "DataIn[2..0]" (rect 21 43 84 57)(font "Arial" (font_size 8)))
		(line (pt 0 48)(pt 16 48)(line_width 3))
	)
	(port
		(pt 0 64)
		(input)
		(text "Enable_H" (rect 0 0 53 14)(font "Arial" (font_size 8)))
		(text "Enable_H" (rect 21 59 74 73)(font "Arial" (font_size 8)))
		(line (pt 0 64)(pt 16 64))
	)
	(port
		(pt 0 80)
		(input)
		(text "Clk" (rect 0 0 16 14)(font "Arial" (font_size 8)))
		(text "Clk" (rect 21 75 37 89)(font "Arial" (font_size 8)))
		(line (pt 0 80)(pt 16 80))
	)
	(port
		(pt 0 96)
		(input)
		(text "Reset_L" (rect 0 0 47 14)(font "Arial" (font_size 8)))
		(text "Reset_L" (rect 21 91 68 105)(font "Arial" (font_size 8)))
		(line (pt 0 96)(pt 16 96))
	)
	(port
		(pt 184 32)
		(output)
		(text "ACIA_Clock" (rect 0 0 67 14)(font "Arial" (font_size 8)))
		(text "ACIA_Clock" (rect 96 27 163 41)(font "Arial" (font_size 8)))
		(line (pt 184 32)(pt 168 32))
	)
	(drawing
		(rectangle (rect 16 16 168 112))
	)
)
(symbol
	(rect 992 -112 1176 16)
	(text "ACIA_BaudRate_Generator" (rect 5 0 161 14)(font "Arial" (font_size 8)))
	(text "Bluetooth_Clock" (rect 8 112 88 124)(font "Arial" ))
	(port
		(pt 0 32)
		(input)
		(text "Clk_50Mhz" (rect 0 0 61 14)(font "Arial" (font_size 8)))
		(text "Clk_50Mhz" (rect 21 27 82 41)(font "Arial" (font_size 8)))
		(line (pt 0 32)(pt 16 32))
	)
	(port
		(pt 0 48)
		(input)
		(text "DataIn[2..0]" (rect 0 0 63 14)(font "Arial" (font_size 8)))
		(text "DataIn[2..0]" (rect 21 43 84 57)(font "Arial" (font_size 8)))
		(line (pt 0 48)(pt 16 48)(line_width 3))
	)
	(port
		(pt 0 64)
		(input)
		(text "Enable_H" (rect 0 0 53 14)(font "Arial" (font_size 8)))
		(text "Enable_H" (rect 21 59 74 73)(font "Arial" (font_size 8)))
		(line (pt 0 64)(pt 16 64))
	)
	(port
		(pt 0 80)
		(input)
		(text "Clk" (rect 0 0 16 14)(font "Arial" (font_size 8)))
		(text "Clk" (rect 21 75 37 89)(font "Arial" (font_size 8)))
		(line (pt 0 80)(pt 16 80))
	)
	(port
		(pt 0 96)
		(input)
		(text "Reset_L" (rect 0 0 47 14)(font "Arial" (font_size 8)))
		(text "Reset_L" (rect 21 91 68 105)(font "Arial" (font_size 8)))
		(line (pt 0 96)(pt 16 96))
	)
	(port
		(pt 184 32)
		(output)
		(text "ACIA_Clock" (rect 0 0 67 14)(font "Arial" (font_size 8)))
		(text "ACIA_Clock" (rect 96 27 163 41)(font "Arial" (font_size 8)))
		(line (pt 184 32)(pt 168 32))
	)
	(drawing
		(rectangle (rect 16 16 168 112))
	)
)
(symbol
	(rect 992 -240 1176 -112)
	(text "ACIA_BaudRate_Generator" (rect 5 0 161 14)(font "Arial" (font_size 8)))
	(text "Touchscreen_Clock" (rect 8 112 104 124)(font "Arial" ))
	(port
		(pt 0 32)
		(input)
		(text "Clk_50Mhz" (rect 0 0 61 14)(font "Arial" (font_size 8)))
		(text "Clk_50Mhz" (rect 21 27 82 41)(font "Arial" (font_size 8)))
		(line (pt 0 32)(pt 16 32))
	)
	(port
		(pt 0 48)
		(input)
		(text "DataIn[2..0]" (rect 0 0 63 14)(font "Arial" (font_size 8)))
		(text "DataIn[2..0]" (rect 21 43 84 57)(font "Arial" (font_size 8)))
		(line (pt 0 48)(pt 16 48)(line_width 3))
	)
	(port
		(pt 0 64)
		(input)
		(text "Enable_H" (rect 0 0 53 14)(font "Arial" (font_size 8)))
		(text "Enable_H" (rect 21 59 74 73)(font "Arial" (font_size 8)))
		(line (pt 0 64)(pt 16 64))
	)
	(port
		(pt 0 80)
		(input)
		(text "Clk" (rect 0 0 16 14)(font "Arial" (font_size 8)))
		(text "Clk" (rect 21 75 37 89)(font "Arial" (font_size 8)))
		(line (pt 0 80)(pt 16 80))
	)
	(port
		(pt 0 96)
		(input)
		(text "Reset_L" (rect 0 0 47 14)(font "Arial" (font_size 8)))
		(text "Reset_L" (rect 21 91 68 105)(font "Arial" (font_size 8)))
		(line (pt 0 96)(pt 16 96))
	)
	(port
		(pt 184 32)
		(output)
		(text "ACIA_Clock" (rect 0 0 67 14)(font "Arial" (font_size 8)))
		(text "ACIA_Clock" (rect 96 27 163 41)(font "Arial" (font_size 8)))
		(line (pt 184 32)(pt 168 32))
	)
	(drawing
		(rectangle (rect 16 16 168 112))
	)
)
(symbol
	(rect 960 1872 992 1904)
	(text "GND" (rect 8 16 29 26)(font "Arial" (font_size 6)))
	(text "inst15" (rect 3 21 32 33)(font "Arial" )(invisible))
	(port
		(pt 16 0)
		(output)
		(text "1" (rect 18 0 23 12)(font "Courier New" (bold))(invisible))
		(text "1" (rect 18 0 23 12)(font "Courier New" (bold))(invisible))
		(line (pt 16 8)(pt 16 0))
	)
	(drawing
		(line (pt 8 8)(pt 16 16))
		(line (pt 16 16)(pt 24 8))
		(line (pt 8 8)(pt 24 8))
	)
)
(symbol
	(rect 1496 664 1560 776)
	(text "NAND6" (rect 1 0 32 10)(font "Arial" (font_size 6)))
	(text "inst2" (rect 3 101 26 113)(font "Arial" ))
	(port
		(pt 0 48)
		(input)
		(text "IN3" (rect 2 39 19 51)(font "Courier New" (bold))(invisible))
		(text "IN3" (rect 2 39 19 51)(font "Courier New" (bold))(invisible))
		(line (pt 0 48)(pt 18 48))
	)
	(port
		(pt 0 32)
		(input)
		(text "IN2" (rect 2 23 19 35)(font "Courier New" (bold))(invisible))
		(text "IN2" (rect 2 23 19 35)(font "Courier New" (bold))(invisible))
		(line (pt 0 32)(pt 18 32))
	)
	(port
		(pt 0 16)
		(input)
		(text "IN1" (rect 2 7 19 19)(font "Courier New" (bold))(invisible))
		(text "IN1" (rect 2 7 19 19)(font "Courier New" (bold))(invisible))
		(line (pt 0 16)(pt 18 16))
	)
	(port
		(pt 0 96)
		(input)
		(text "IN6" (rect 2 87 19 99)(font "Courier New" (bold))(invisible))
		(text "IN6" (rect 2 87 19 99)(font "Courier New" (bold))(invisible))
		(line (pt 0 96)(pt 18 96))
	)
	(port
		(pt 0 64)
		(input)
		(text "IN4" (rect 2 55 19 67)(font "Courier New" (bold))(invisible))
		(text "IN4" (rect 2 55 19 67)(font "Courier New" (bold))(invisible))
		(line (pt 0 64)(pt 18 64))
	)
	(port
		(pt 0 80)
		(input)
		(text "IN5" (rect 2 71 19 83)(font "Courier New" (bold))(invisible))
		(text "IN5" (rect 2 71 19 83)(font "Courier New" (bold))(invisible))
		(line (pt 0 80)(pt 18 80))
	)
	(port
		(pt 64 56)
		(output)
		(text "OUT" (rect 48 47 65 59)(font "Courier New" (bold))(invisible))
		(text "OUT" (rect 48 47 65 59)(font "Courier New" (bold))(invisible))
		(line (pt 54 56)(pt 64 56))
	)
	(drawing
		(line (pt 18 44)(pt 34 44))
		(line (pt 18 69)(pt 34 69))
		(line (pt 18 99)(pt 18 13))
		(arc (pt 34 68)(pt 34 44)(rect 22 44 47 69))
		(circle (rect 46 52 54 60))
	)
)
(symbol
	(rect 992 -368 1176 -240)
	(text "ACIA_BaudRate_Generator" (rect 5 0 161 14)(font "Arial" (font_size 8)))
	(text "WIFI_Clock" (rect 8 112 67 124)(font "Arial" ))
	(port
		(pt 0 32)
		(input)
		(text "Clk_50Mhz" (rect 0 0 61 14)(font "Arial" (font_size 8)))
		(text "Clk_50Mhz" (rect 21 27 82 41)(font "Arial" (font_size 8)))
		(line (pt 0 32)(pt 16 32))
	)
	(port
		(pt 0 48)
		(input)
		(text "DataIn[2..0]" (rect 0 0 63 14)(font "Arial" (font_size 8)))
		(text "DataIn[2..0]" (rect 21 43 84 57)(font "Arial" (font_size 8)))
		(line (pt 0 48)(pt 16 48)(line_width 3))
	)
	(port
		(pt 0 64)
		(input)
		(text "Enable_H" (rect 0 0 53 14)(font "Arial" (font_size 8)))
		(text "Enable_H" (rect 21 59 74 73)(font "Arial" (font_size 8)))
		(line (pt 0 64)(pt 16 64))
	)
	(port
		(pt 0 80)
		(input)
		(text "Clk" (rect 0 0 16 14)(font "Arial" (font_size 8)))
		(text "Clk" (rect 21 75 37 89)(font "Arial" (font_size 8)))
		(line (pt 0 80)(pt 16 80))
	)
	(port
		(pt 0 96)
		(input)
		(text "Reset_L" (rect 0 0 47 14)(font "Arial" (font_size 8)))
		(text "Reset_L" (rect 21 91 68 105)(font "Arial" (font_size 8)))
		(line (pt 0 96)(pt 16 96))
	)
	(port
		(pt 184 32)
		(output)
		(text "ACIA_Clock" (rect 0 0 67 14)(font "Arial" (font_size 8)))
		(text "ACIA_Clock" (rect 96 27 163 41)(font "Arial" (font_size 8)))
		(line (pt 184 32)(pt 168 32))
	)
	(drawing
		(rectangle (rect 16 16 168 112))
	)
)
(symbol
	(rect 1504 792 1536 808)
	(text "VCC" (rect 5 0 25 10)(font "Arial" (font_size 6)))
	(text "inst5" (rect 6 5 29 17)(font "Arial" )(invisible))
	(port
		(pt 16 16)
		(output)
		(text "1" (rect 19 7 24 19)(font "Courier New" (bold))(invisible))
		(text "1" (rect 8 7 13 19)(font "Courier New" (bold))(invisible))
		(line (pt 16 16)(pt 16 8))
	)
	(drawing
		(line (pt 24 8)(pt 8 8))
	)
	(flipy)
)
(symbol
	(rect 1008 1680 1208 1920)
	(text "ACIA_6850" (rect 5 0 60 12)(font "Arial" ))
	(text "WiFi" (rect 8 224 30 236)(font "Arial" ))
	(port
		(pt 0 32)
		(input)
		(text "Clk" (rect 0 0 16 12)(font "Arial" ))
		(text "Clk" (rect 21 27 37 39)(font "Arial" ))
		(line (pt 0 32)(pt 16 32))
	)
	(port
		(pt 0 48)
		(input)
		(text "Reset_H" (rect 0 0 43 12)(font "Arial" ))
		(text "Reset_H" (rect 21 43 64 55)(font "Arial" ))
		(line (pt 0 48)(pt 16 48))
	)
	(port
		(pt 0 64)
		(input)
		(text "CS_H" (rect 0 0 29 12)(font "Arial" ))
		(text "CS_H" (rect 21 59 50 71)(font "Arial" ))
		(line (pt 0 64)(pt 16 64))
	)
	(port
		(pt 0 80)
		(input)
		(text "Write_L" (rect 0 0 37 12)(font "Arial" ))
		(text "Write_L" (rect 21 75 58 87)(font "Arial" ))
		(line (pt 0 80)(pt 16 80))
	)
	(port
		(pt 0 96)
		(input)
		(text "RS" (rect 0 0 15 12)(font "Arial" ))
		(text "RS" (rect 21 91 36 103)(font "Arial" ))
		(line (pt 0 96)(pt 16 96))
	)
	(port
		(pt 0 112)
		(input)
		(text "DataIn[7..0]" (rect 0 0 59 12)(font "Arial" ))
		(text "DataIn[7..0]" (rect 21 107 80 119)(font "Arial" ))
		(line (pt 0 112)(pt 16 112)(line_width 3))
	)
	(port
		(pt 0 128)
		(input)
		(text "RxClock" (rect 0 0 42 12)(font "Arial" ))
		(text "RxClock" (rect 21 123 63 135)(font "Arial" ))
		(line (pt 0 128)(pt 16 128))
	)
	(port
		(pt 0 144)
		(input)
		(text "TxClock" (rect 0 0 40 12)(font "Arial" ))
		(text "TxClock" (rect 21 139 61 151)(font "Arial" ))
		(line (pt 0 144)(pt 16 144))
	)
	(port
		(pt 0 160)
		(input)
		(text "RxData" (rect 0 0 37 12)(font "Arial" ))
		(text "RxData" (rect 21 155 58 167)(font "Arial" ))
		(line (pt 0 160)(pt 16 160))
	)
	(port
		(pt 0 176)
		(input)
		(text "DCD_L" (rect 0 0 36 12)(font "Arial" ))
		(text "DCD_L" (rect 21 171 57 183)(font "Arial" ))
		(line (pt 0 176)(pt 16 176))
	)
	(port
		(pt 0 192)
		(input)
		(text "CTS_L" (rect 0 0 33 12)(font "Arial" ))
		(text "CTS_L" (rect 21 187 54 199)(font "Arial" ))
		(line (pt 0 192)(pt 16 192))
	)
	(port
		(pt 200 32)
		(output)
		(text "IRQ_L" (rect 0 0 31 12)(font "Arial" ))
		(text "IRQ_L" (rect 153 27 184 39)(font "Arial" ))
		(line (pt 200 32)(pt 184 32))
	)
	(port
		(pt 200 48)
		(output)
		(text "DataOut[7..0]" (rect 0 0 67 12)(font "Arial" ))
		(text "DataOut[7..0]" (rect 123 43 190 55)(font "Arial" ))
		(line (pt 200 48)(pt 184 48)(line_width 3))
	)
	(port
		(pt 200 64)
		(output)
		(text "TxData" (rect 0 0 35 12)(font "Arial" ))
		(text "TxData" (rect 150 59 185 71)(font "Arial" ))
		(line (pt 200 64)(pt 184 64))
	)
	(port
		(pt 200 80)
		(output)
		(text "RTS_L" (rect 0 0 33 12)(font "Arial" ))
		(text "RTS_L" (rect 152 75 185 87)(font "Arial" ))
		(line (pt 200 80)(pt 184 80))
	)
	(drawing
		(rectangle (rect 16 16 184 224))
	)
)
(connector
	(pt 992 -208)
	(pt 856 -208)
)
(connector
	(pt 992 -80)
	(pt 856 -80)
)
(connector
	(pt 992 -48)
	(pt 920 -48)
)
(connector
	(pt 992 -176)
	(pt 912 -176)
)
(connector
	(pt 992 -32)
	(pt 856 -32)
)
(connector
	(pt 856 -80)
	(pt 856 -32)
)
(connector
	(pt 992 -160)
	(pt 856 -160)
)
(connector
	(pt 856 -160)
	(pt 856 -80)
)
(connector
	(pt 992 -16)
	(pt 968 -16)
)
(connector
	(pt 992 -144)
	(pt 968 -144)
)
(connector
	(pt 1008 800)
	(pt 1008 784)
)
(connector
	(pt 1008 752)
	(pt 1008 736)
)
(connector
	(pt 840 672)
	(pt 1008 672)
)
(connector
	(pt 440 688)
	(pt 1008 688)
)
(connector
	(pt 872 720)
	(pt 1008 720)
	(bus)
)
(connector
	(pt 856 640)
	(pt 1008 640)
)
(connector
	(pt 1256 672)
	(pt 1208 672)
)
(connector
	(pt 1208 592)
	(pt 968 592)
)
(connector
	(pt 1176 -80)
	(pt 1224 -80)
)
(connector
	(pt 1224 -80)
	(pt 1224 584)
)
(connector
	(pt 1224 584)
	(pt 952 584)
)
(connector
	(pt 1176 -208)
	(pt 1240 -208)
)
(connector
	(pt 1240 576)
	(pt 1240 -208)
)
(connector
	(pt 1584 928)
	(pt 1208 928)
	(bus)
)
(connector
	(pt 1232 944)
	(pt 1208 944)
)
(connector
	(pt 1440 912)
	(pt 1208 912)
)
(connector
	(pt 856 912)
	(pt 1008 912)
)
(connector
	(pt 872 992)
	(pt 1008 992)
	(bus)
)
(connector
	(pt 1008 1072)
	(pt 1008 1056)
)
(connector
	(pt 440 960)
	(pt 1008 960)
)
(connector
	(pt 968 1024)
	(pt 1008 1024)
)
(connector
	(pt 1008 1008)
	(pt 1008 1024)
)
(connector
	(pt 968 592)
	(pt 968 1024)
)
(connector
	(pt 1208 656)
	(pt 1584 656)
	(bus)
)
(connector
	(pt 1584 656)
	(pt 1600 656)
	(bus)
)
(connector
	(text "Address[1]" (rect 586 688 639 700)(font "Arial" ))
	(pt 1008 704)
	(pt 472 704)
)
(connector
	(text "Address[1]" (rect 578 960 631 972)(font "Arial" ))
	(pt 1008 976)
	(pt 472 976)
)
(connector
	(pt 472 704)
	(pt 472 976)
	(bus)
)
(connector
	(pt 1008 1328)
	(pt 1008 1344)
)
(connector
	(pt 1232 1216)
	(pt 1208 1216)
)
(connector
	(pt 1456 1184)
	(pt 1208 1184)
)
(connector
	(pt 1584 1200)
	(pt 1208 1200)
	(bus)
)
(connector
	(pt 872 1264)
	(pt 1008 1264)
	(bus)
)
(connector
	(pt 1008 1296)
	(pt 1008 1280)
)
(connector
	(pt 952 1296)
	(pt 1008 1296)
)
(connector
	(pt 952 584)
	(pt 952 1296)
)
(connector
	(text "Address[1]" (rect 578 1232 631 1244)(font "Arial" ))
	(pt 472 1248)
	(pt 1008 1248)
)
(connector
	(pt 856 1184)
	(pt 1008 1184)
)
(connector
	(pt 1584 656)
	(pt 1584 928)
	(bus)
)
(connector
	(pt 872 720)
	(pt 872 992)
	(bus)
)
(connector
	(pt 856 640)
	(pt 856 912)
)
(connector
	(pt 1008 1232)
	(pt 440 1232)
)
(connector
	(pt 440 688)
	(pt 440 960)
)
(connector
	(pt 1008 800)
	(pt 992 800)
)
(connector
	(pt 1240 576)
	(pt 936 576)
)
(connector
	(pt 1008 1072)
	(pt 984 1072)
)
(connector
	(pt 1008 1344)
	(pt 984 1344)
)
(connector
	(pt 400 608)
	(pt 408 608)
)
(connector
	(pt 408 608)
	(pt 440 608)
)
(connector
	(pt 928 80)
	(pt 992 80)
)
(connector
	(pt 856 48)
	(pt 992 48)
)
(connector
	(pt 856 96)
	(pt 992 96)
)
(connector
	(pt 968 112)
	(pt 992 112)
)
(connector
	(pt 1208 48)
	(pt 1176 48)
)
(connector
	(pt 1208 592)
	(pt 1208 48)
)
(connector
	(pt 968 -16)
	(pt 968 112)
)
(connector
	(pt 856 -32)
	(pt 856 48)
)
(connector
	(pt 856 48)
	(pt 856 96)
)
(connector
	(text "DataIn[2..0]" (rect 898 48 957 60)(font "Arial" ))
	(pt 872 64)
	(pt 992 64)
	(bus)
)
(connector
	(text "DataIn[2..0]" (rect 898 -80 957 -68)(font "Arial" ))
	(pt 872 -64)
	(pt 992 -64)
	(bus)
)
(connector
	(text "DataIn[2..0]" (rect 898 -208 957 -196)(font "Arial" ))
	(pt 992 -192)
	(pt 872 -192)
	(bus)
)
(connector
	(pt 872 -64)
	(pt 872 64)
	(bus)
)
(connector
	(pt 936 208)
	(pt 992 208)
)
(connector
	(pt 856 224)
	(pt 992 224)
)
(connector
	(pt 1192 176)
	(pt 1176 176)
)
(connector
	(pt 1192 600)
	(pt 1192 176)
)
(connector
	(pt 856 176)
	(pt 856 224)
)
(connector
	(pt 856 224)
	(pt 856 640)
)
(connector
	(pt 736 768)
	(pt 744 768)
)
(connector
	(pt 744 768)
	(pt 1008 768)
)
(connector
	(pt 1000 1040)
	(pt 1000 1032)
)
(connector
	(pt 1008 1040)
	(pt 1000 1040)
)
(connector
	(pt 736 1032)
	(pt 744 1032)
)
(connector
	(pt 744 1032)
	(pt 1000 1032)
)
(connector
	(pt 776 1200)
	(pt 1008 1200)
)
(connector
	(pt 736 1312)
	(pt 1008 1312)
)
(connector
	(pt 832 944)
	(pt 1008 944)
)
(connector
	(pt 1008 1216)
	(pt 824 1216)
)
(connector
	(pt 776 928)
	(pt 1008 928)
)
(connector
	(pt 400 656)
	(pt 408 656)
)
(connector
	(pt 872 192)
	(pt 872 720)
	(bus)
)
(connector
	(pt 872 64)
	(pt 872 192)
	(bus)
)
(connector
	(pt 856 96)
	(pt 856 176)
)
(connector
	(pt 416 176)
	(pt 856 176)
)
(connector
	(pt 856 176)
	(pt 992 176)
)
(connector
	(pt 416 192)
	(pt 872 192)
	(bus)
)
(connector
	(text "DataIn[2..0]" (rect 898 192 957 204)(font "Arial" ))
	(pt 872 192)
	(pt 992 192)
	(bus)
)
(connector
	(pt 776 656)
	(pt 776 928)
)
(connector
	(pt 1008 752)
	(pt 984 752)
)
(connector
	(pt 1192 600)
	(pt 984 600)
)
(connector
	(pt 984 752)
	(pt 984 600)
)
(connector
	(pt 1016 656)
	(pt 1008 656)
)
(connector
	(pt 1008 656)
	(pt 776 656)
)
(connector
	(pt 1440 680)
	(pt 1496 680)
)
(connector
	(pt 1440 696)
	(pt 1496 696)
)
(connector
	(pt 1440 912)
	(pt 1440 696)
)
(connector
	(pt 1456 712)
	(pt 1496 712)
)
(connector
	(pt 1456 1184)
	(pt 1456 712)
)
(connector
	(pt 1472 728)
	(pt 1496 728)
)
(connector
	(pt 1440 680)
	(pt 1440 640)
)
(connector
	(pt 1440 640)
	(pt 1208 640)
)
(connector
	(pt 968 112)
	(pt 968 240)
)
(connector
	(pt 504 656)
	(pt 504 240)
)
(connector
	(pt 504 240)
	(pt 968 240)
)
(connector
	(pt 968 240)
	(pt 992 240)
)
(connector
	(pt 408 656)
	(pt 504 656)
)
(connector
	(pt 504 656)
	(pt 728 656)
)
(connector
	(pt 472 384)
	(pt 472 704)
	(bus)
)
(connector
	(pt 1472 1456)
	(pt 1208 1456)
)
(connector
	(pt 1584 1472)
	(pt 1208 1472)
	(bus)
)
(connector
	(pt 856 1456)
	(pt 1008 1456)
)
(connector
	(text "Address[1]" (rect 570 1504 623 1516)(font "Arial" ))
	(pt 472 1520)
	(pt 1008 1520)
	(bus)
)
(connector
	(pt 872 1536)
	(pt 1008 1536)
	(bus)
)
(connector
	(pt 1008 1600)
	(pt 1008 1616)
)
(connector
	(pt 1008 1568)
	(pt 1008 1552)
)
(connector
	(pt 936 1568)
	(pt 1008 1568)
)
(connector
	(pt 936 576)
	(pt 936 1568)
)
(connector
	(pt 1232 1488)
	(pt 1208 1488)
)
(connector
	(pt 816 1584)
	(pt 1008 1584)
)
(connector
	(pt 440 1504)
	(pt 1008 1504)
)
(connector
	(pt 776 1472)
	(pt 1008 1472)
)
(connector
	(pt 816 1488)
	(pt 1008 1488)
)
(connector
	(pt 1472 728)
	(pt 1472 1456)
)
(connector
	(pt 440 960)
	(pt 440 1232)
)
(connector
	(pt 1584 928)
	(pt 1584 1200)
	(bus)
)
(connector
	(pt 856 912)
	(pt 856 1184)
)
(connector
	(pt 472 976)
	(pt 472 1248)
	(bus)
)
(connector
	(pt 872 992)
	(pt 872 1264)
	(bus)
)
(connector
	(pt 776 928)
	(pt 776 1200)
)
(connector
	(pt 856 -208)
	(pt 856 -160)
)
(connector
	(pt 992 -288)
	(pt 856 -288)
)
(connector
	(text "DataIn[2..0]" (rect 898 -336 957 -324)(font "Arial" ))
	(pt 992 -320)
	(pt 872 -320)
	(bus)
)
(connector
	(pt 872 -320)
	(pt 872 -192)
	(bus)
)
(connector
	(pt 872 -192)
	(pt 872 -64)
	(bus)
)
(connector
	(pt 992 -336)
	(pt 856 -336)
)
(connector
	(pt 856 -336)
	(pt 856 -288)
)
(connector
	(pt 856 -288)
	(pt 856 -208)
)
(connector
	(pt 992 -304)
	(pt 904 -304)
)
(connector
	(pt 968 -272)
	(pt 968 -144)
)
(connector
	(pt 968 -144)
	(pt 968 -16)
)
(connector
	(pt 992 -272)
	(pt 968 -272)
)
(connector
	(pt 1176 -336)
	(pt 1256 -336)
)
(connector
	(pt 1008 1616)
	(pt 976 1616)
)
(connector
	(pt 1256 -336)
	(pt 1256 568)
)
(connector
	(pt 1256 568)
	(pt 920 568)
)
(connector
	(pt 440 432)
	(pt 520 432)
)
(connector
	(pt 920 -48)
	(pt 920 464)
)
(connector
	(pt 912 -176)
	(pt 912 496)
)
(connector
	(pt 840 672)
	(pt 840 384)
)
(connector
	(pt 928 80)
	(pt 928 432)
)
(connector
	(pt 936 208)
	(pt 936 400)
)
(connector
	(pt 832 944)
	(pt 832 416)
)
(connector
	(pt 824 1216)
	(pt 824 448)
)
(connector
	(pt 816 1488)
	(pt 816 480)
)
(connector
	(pt 904 -304)
	(pt 904 528)
)
(connector
	(pt 400 400)
	(pt 408 400)
)
(connector
	(pt 408 400)
	(pt 520 400)
)
(connector
	(pt 400 416)
	(pt 408 416)
)
(connector
	(pt 408 416)
	(pt 520 416)
)
(connector
	(pt 440 432)
	(pt 440 608)
)
(connector
	(pt 440 608)
	(pt 440 688)
)
(connector
	(pt 408 384)
	(pt 472 384)
	(bus)
)
(connector
	(pt 472 384)
	(pt 520 384)
	(bus)
)
(connector
	(pt 792 384)
	(pt 840 384)
)
(connector
	(pt 792 400)
	(pt 936 400)
)
(connector
	(pt 792 416)
	(pt 832 416)
)
(connector
	(pt 792 432)
	(pt 928 432)
)
(connector
	(pt 792 448)
	(pt 824 448)
)
(connector
	(pt 792 464)
	(pt 920 464)
)
(connector
	(pt 792 480)
	(pt 816 480)
)
(connector
	(pt 792 496)
	(pt 912 496)
)
(connector
	(pt 792 512)
	(pt 808 512)
)
(connector
	(pt 792 528)
	(pt 904 528)
)
(connector
	(pt 1592 704)
	(pt 1592 720)
)
(connector
	(pt 1600 704)
	(pt 1592 704)
)
(connector
	(pt 1592 720)
	(pt 1560 720)
)
(connector
	(pt 1496 744)
	(pt 1488 744)
)
(connector
	(pt 1520 808)
	(pt 1520 800)
)
(connector
	(pt 1520 800)
	(pt 1496 800)
)
(connector
	(pt 1496 760)
	(pt 1496 800)
)
(connector
	(pt 1008 1872)
	(pt 1008 1856)
)
(connector
	(pt 1232 1744)
	(pt 1208 1744)
)
(connector
	(pt 976 1872)
	(pt 1008 1872)
)
(connector
	(pt 920 568)
	(pt 920 1824)
)
(connector
	(pt 920 1824)
	(pt 1008 1824)
)
(connector
	(pt 1008 1808)
	(pt 1008 1824)
)
(connector
	(pt 872 1792)
	(pt 1008 1792)
	(bus)
)
(connector
	(pt 776 1728)
	(pt 1008 1728)
)
(connector
	(pt 856 1712)
	(pt 1008 1712)
)
(connector
	(text "Address[1]" (rect 570 1760 623 1772)(font "Arial" ))
	(pt 472 1776)
	(pt 1008 1776)
	(bus)
)
(connector
	(pt 440 1760)
	(pt 1008 1760)
)
(connector
	(pt 816 1840)
	(pt 1008 1840)
)
(connector
	(pt 1584 1728)
	(pt 1208 1728)
	(bus)
)
(connector
	(pt 808 1744)
	(pt 1008 1744)
)
(connector
	(pt 808 512)
	(pt 808 1744)
)
(connector
	(pt 1488 744)
	(pt 1488 1712)
)
(connector
	(pt 1488 1712)
	(pt 1208 1712)
)
(connector
	(pt 872 1264)
	(pt 872 1536)
	(bus)
)
(connector
	(pt 872 1536)
	(pt 872 1792)
	(bus)
)
(connector
	(pt 776 1200)
	(pt 776 1472)
)
(connector
	(pt 776 1472)
	(pt 776 1728)
)
(connector
	(pt 856 1184)
	(pt 856 1456)
)
(connector
	(pt 856 1456)
	(pt 856 1712)
)
(connector
	(pt 472 1248)
	(pt 472 1520)
	(bus)
)
(connector
	(pt 472 1520)
	(pt 472 1776)
	(bus)
)
(connector
	(pt 440 1232)
	(pt 440 1504)
)
(connector
	(pt 440 1504)
	(pt 440 1760)
)
(connector
	(pt 1584 1200)
	(pt 1584 1472)
	(bus)
)
(connector
	(pt 1584 1472)
	(pt 1584 1728)
	(bus)
)
(junction (pt 440 608))
(junction (pt 856 -80))
(junction (pt 872 -64))
(junction (pt 856 -32))
(junction (pt 856 -160))
(junction (pt 968 -16))
(junction (pt 1008 752))
(junction (pt 1584 656))
(junction (pt 856 640))
(junction (pt 872 720))
(junction (pt 440 688))
(junction (pt 472 704))
(junction (pt 472 976))
(junction (pt 1008 1024))
(junction (pt 1584 928))
(junction (pt 872 992))
(junction (pt 1008 1296))
(junction (pt 472 1248))
(junction (pt 440 960))
(junction (pt 856 912))
(junction (pt 1584 1200))
(junction (pt 856 1184))
(junction (pt 440 1232))
(junction (pt 872 1264))
(junction (pt 1008 1616))
(junction (pt 1008 1568))
(junction (pt 1008 800))
(junction (pt 1008 1072))
(junction (pt 1008 1344))
(junction (pt 408 608))
(junction (pt 408 400))
(junction (pt 408 416))
(junction (pt 408 656))
(junction (pt 872 64))
(junction (pt 968 112))
(junction (pt 856 48))
(junction (pt 856 96))
(junction (pt 856 176))
(junction (pt 872 192))
(junction (pt 856 224))
(junction (pt 968 240))
(junction (pt 744 768))
(junction (pt 744 1032))
(junction (pt 776 928))
(junction (pt 776 1200))
(junction (pt 776 656))
(junction (pt 1008 656))
(junction (pt 504 656))
(junction (pt 472 384))
(junction (pt 856 -208))
(junction (pt 856 -288))
(junction (pt 872 -192))
(junction (pt 968 -144))
(junction (pt 1008 1872))
(junction (pt 1008 1824))
(junction (pt 872 1536))
(junction (pt 856 1456))
(junction (pt 776 1472))
(junction (pt 440 1504))
(junction (pt 472 1520))
(junction (pt 1584 1472))
(text "these inputs can be connected" (rect 1584 800 1759 814)(font "Arial" (font_size 8)))
(text "It should be enabled when the CPU writes (or reads) to location hex 8400_0204. Data in bits 2, 1 and 0 of the data bus is used to set the baud rate" (rect 1032 360 1863 374)(font "Arial" (font_size 8)))
(text "Interrupt request output from serial port(s)" (rect 1608 720 1847 734)(font "Arial" (font_size 8)))
(text "ByteSelect_L is driven to '0' when CPU accesses EVEN address" (rect 64 448 430 462)(font "Arial" (font_size 8)))
(text "IOSelect_H is driven by the Avalon to External Bridge when CPU access" (rect 64 464 474 478)(font "Arial" (font_size 8)))
(text "any address in range hex 8400_0000 - 8400_FFFF" (rect 64 480 353 494)(font "Arial" (font_size 8)))
(text "We need to decode the \"FFFF\" part to provide selects for your ports " (rect 64 504 454 518)(font "Arial" (font_size 8)))
(text "That's why addres lines A15:A0 are available above and feed a decoder" (rect 64 520 478 534)(font "Arial" (font_size 8)))
(text "3 other IRQ inputs to AND gate tied high (inactve)" (rect 1584 784 1862 798)(font "Arial" (font_size 8)))
(text "to other ACIA chips to provide 1 common IRQ for all 4 devices" (rect 1584 816 1934 830)(font "Arial" (font_size 8)))
(text "An active low write enable signal" (rect 32 600 221 614)(font "Arial" (font_size 8)))
(text "This is driven low whenever the CPU writes to a location" (rect 32 616 355 630)(font "Arial" (font_size 8)))
(text "DataOut[7..0], this is actually connected to CPU data bus [7..0] on the next level up" (rect 1400 584 1866 598)(font "Arial" (font_size 8)))
(text "DataIn[7..0], this is connected to CPU data bus [7..0] on the next level up" (rect 224 208 632 222)(font "Arial" (font_size 8)))
(text "Primary IO decoder: Produces enables to IO devices" (rect 512 304 808 318)(font "Arial" (font_size 8)))
(text "based on addresses issued by CPU via bridge" (rect 512 320 775 334)(font "Arial" (font_size 8)))
